…
``` r
# read application data
app_data_sample <- read_parquet(paste0(data_path,"app_data_sample.parquet"))
```

To inspect the top slice of the data, we can simply call it:

``` r
app_data_sample
```

    ## # A tibble: 2,018,477 × 16
    ##    application_number filing_date examiner_name_last examiner_name_first
    ##    <chr>              <date>      <chr>              <chr>              
    ##  1 08284457           2000-01-26  HOWARD             JACQUELINE         
    ##  2 08413193           2000-10-11  YILDIRIM           BEKIR              
    ##  3 08531853           2000-05-17  HAMILTON           CYNTHIA            
    ##  4 08637752           2001-07-20  MOSHER             MARY               
    ##  5 08682726           2000-04-10  BARR               MICHAEL            
    ##  6 08687412           2000-04-28  GRAY               LINDA              
    ##  7 08716371           2004-01-26  MCMILLIAN          KARA               
    ##  8 08765941           2000-06-23  FORD               VANESSA            
    ##  9 08776818           2000-02-04  STRZELECKA         TERESA             
    ## 10 08809677           2002-02-20  KIM                SUN                
    ## # … with 2,018,467 more rows, and 12 more variables:
    ## #   examiner_name_middle <chr>, examiner_id <dbl>, examiner_art_unit <dbl>,
    ## #   uspc_class <chr>, uspc_subclass <chr>, patent_number <chr>,
    ## #   patent_issue_date <date>, abandon_date <date>, disposal_type <chr>,
    ## #   appl_status_code <dbl>, appl_status_date <chr>, tc <dbl>
…
``` r
library(gender)
#install_genderdata_package() # only run this line the first time you use the package, to get data for it
# get a list of first names without repetitions
examiner_names <- app_data_sample %>% 
  distinct(examiner_name_first)
examiner_names
```

    ## # A tibble: 2,595 × 1
    ##    examiner_name_first
    ##    <chr>              
    ##  1 JACQUELINE         
    ##  2 BEKIR              
    ##  3 CYNTHIA            
    ##  4 MARY               
    ##  5 MICHAEL            
    ##  6 LINDA              
    ##  7 KARA               
    ##  8 VANESSA            
    ##  9 TERESA             
    ## 10 SUN                
    ## # … with 2,585 more rows
…
``` r
# get a table of names and gender
examiner_names_gender <- examiner_names %>% 
  do(results = gender(.$examiner_name_first, method = "ssa")) %>% 
  unnest(cols = c(results), keep_empty = TRUE) %>% 
  select(
    examiner_name_first = name,
    gender,
    proportion_female
  )
examiner_names_gender
```

    ## # A tibble: 1,822 × 3
    ##    examiner_name_first gender proportion_female
    ##    <chr>               <chr>              <dbl>
    ##  1 AARON               male              0.0082
    ##  2 ABDEL               male              0     
    ##  3 ABDOU               male              0     
    ##  4 ABDUL               male              0     
    ##  5 ABDULHAKIM          male              0     
    ##  6 ABDULLAH            male              0     
    ##  7 ABDULLAHI           male              0     
    ##  8 ABIGAIL             female            0.998 
    ##  9 ABIMBOLA            female            0.944 
    ## 10 ABRAHAM             male              0.0031
    ## # … with 1,812 more rows
…
### Guess the examiner’s race

We’ll now use package `wru` to estimate likely race of an examiner. Just
like with gender, we’ll get a list of unique names first, only now we
are using surnames.

``` r
library(wru)
examiner_surnames <- app_data_sample %>% 
  select(surname = examiner_name_last) %>% 
  distinct()
examiner_surnames
```

    ## # A tibble: 3,806 × 1
    ##    surname   
    ##    <chr>     
    ##  1 HOWARD    
    ##  2 YILDIRIM  
    ##  3 HAMILTON  
    ##  4 MOSHER    
    ##  5 BARR      
    ##  6 GRAY      
    ##  7 MCMILLIAN 
    ##  8 FORD      
    ##  9 STRZELECKA
    ## 10 KIM       
    ## # … with 3,796 more rows
…
``` r
examiner_race <- predict_race(voter.file = examiner_surnames, surname.only = T) %>% 
  as_tibble()
```

    ## [1] "Proceeding with surname-only predictions..."

    ## Warning in merge_surnames(voter.file): Probabilities were imputed for 698
    ## surnames that could not be matched to Census list.

``` r
examiner_race
```

    ## # A tibble: 3,806 × 6
    ##    surname    pred.whi pred.bla pred.his pred.asi pred.oth
    ##    <chr>         <dbl>    <dbl>    <dbl>    <dbl>    <dbl>
    ##  1 HOWARD       0.643   0.295    0.0237   0.005     0.0333
    ##  2 YILDIRIM     0.861   0.0271   0.0609   0.0135    0.0372
    ##  3 HAMILTON     0.702   0.237    0.0245   0.0054    0.0309
    ##  4 MOSHER       0.947   0.00410  0.0241   0.00640   0.0185
    ##  5 BARR         0.827   0.117    0.0226   0.00590   0.0271
    ##  6 GRAY         0.687   0.251    0.0241   0.0054    0.0324
    ##  7 MCMILLIAN    0.359   0.574    0.0189   0.00260   0.0463
    ##  8 FORD         0.620   0.32     0.0237   0.0045    0.0313
    ##  9 STRZELECKA   0.666   0.0853   0.137    0.0797    0.0318
    ## 10 KIM          0.0252  0.00390  0.00650  0.945     0.0198
    ## # … with 3,796 more rows
…
``` r
examiner_race <- examiner_race %>% 
  mutate(max_race_p = pmax(pred.asi, pred.bla, pred.his, pred.oth, pred.whi)) %>% 
  mutate(race = case_when(
    max_race_p == pred.asi ~ "Asian",
    max_race_p == pred.bla ~ "black",
    max_race_p == pred.his ~ "Hispanic",
    max_race_p == pred.oth ~ "other",
    max_race_p == pred.whi ~ "white",
    TRUE ~ NA_character_
  ))
examiner_race
```

    ## # A tibble: 3,806 × 8
    ##    surname    pred.whi pred.bla pred.his pred.asi pred.oth max_race_p race 
    ##    <chr>         <dbl>    <dbl>    <dbl>    <dbl>    <dbl>      <dbl> <chr>
    ##  1 HOWARD       0.643   0.295    0.0237   0.005     0.0333      0.643 white
    ##  2 YILDIRIM     0.861   0.0271   0.0609   0.0135    0.0372      0.861 white
    ##  3 HAMILTON     0.702   0.237    0.0245   0.0054    0.0309      0.702 white
    ##  4 MOSHER       0.947   0.00410  0.0241   0.00640   0.0185      0.947 white
    ##  5 BARR         0.827   0.117    0.0226   0.00590   0.0271      0.827 white
    ##  6 GRAY         0.687   0.251    0.0241   0.0054    0.0324      0.687 white
    ##  7 MCMILLIAN    0.359   0.574    0.0189   0.00260   0.0463      0.574 black
    ##  8 FORD         0.620   0.32     0.0237   0.0045    0.0313      0.620 white
    ##  9 STRZELECKA   0.666   0.0853   0.137    0.0797    0.0318      0.666 white
    ## 10 KIM          0.0252  0.00390  0.00650  0.945     0.0198      0.945 Asian
    ## # … with 3,796 more rows
…
    ## The following object is masked from 'package:arrow':
    ## 
    ##     duration

    ## The following objects are masked from 'package:base':
    ## 
    ##     date, intersect, setdiff, union

``` r
examiner_dates <- app_data_sample %>% 
  select(examiner_id, filing_date, appl_status_date) 
examiner_dates
```

    ## # A tibble: 2,018,477 × 3
    ##    examiner_id filing_date appl_status_date  
    ##          <dbl> <date>      <chr>             
    ##  1       96082 2000-01-26  30jan2003 00:00:00
    ##  2       87678 2000-10-11  27sep2010 00:00:00
    ##  3       63213 2000-05-17  30mar2009 00:00:00
    ##  4       73788 2001-07-20  07sep2009 00:00:00
    ##  5       77294 2000-04-10  19apr2001 00:00:00
    ##  6       68606 2000-04-28  16jul2001 00:00:00
    ##  7       89557 2004-01-26  15may2017 00:00:00
    ##  8       97543 2000-06-23  03apr2002 00:00:00
    ##  9       98714 2000-02-04  27nov2002 00:00:00
    ## 10       65530 2002-02-20  23mar2009 00:00:00
    ## # … with 2,018,467 more rows
…
``` r
examiner_dates <- examiner_dates %>% 
  group_by(examiner_id) %>% 
  summarise(
    earliest_date = min(start_date, na.rm = TRUE), 
    latest_date = max(end_date, na.rm = TRUE),
    tenure_days = interval(earliest_date, latest_date) %/% days(1)
    )
examiner_dates
```

    ## # A tibble: 5,649 × 4
    ##    examiner_id earliest_date latest_date tenure_days
    ##          <dbl> <date>        <date>            <dbl>
    ##  1       59012 2004-07-28    2015-07-24         4013
    ##  2       59025 2009-10-26    2017-05-18         2761
    ##  3       59030 2005-12-12    2017-05-22         4179
    ##  4       59040 2007-09-11    2017-05-23         3542
    ##  5       59052 2001-08-21    2007-02-28         2017
    ##  6       59054 2000-11-10    2016-12-23         5887
    ##  7       59055 2004-11-02    2007-12-26         1149
    ##  8       59056 2000-03-24    2017-05-22         6268
    ##  9       59074 2000-01-31    2017-03-17         6255
    ## 10       59081 2011-04-21    2017-05-19         2220
    ## # … with 5,639 more rows
…
    art_unit = min(examiner_art_unit, na.rm = TRUE),
    gender = min(gender, na.rm = TRUE),
    start_year = min(year(earliest_date), na.rm = TRUE),
    latest_date = max(latest_date, na.rm = TRUE),
    tenure_days = max(tenure_days, na.rm = TRUE)
  ) %>% 
  mutate(
    tc = floor(art_unit/100)*100,
    work_group = floor(art_unit/10)*10
  ) %>% 
  filter(!is.na(gender)) # dropping all records where we don't know the gender
person_level_data
```

    ## # A tibble: 4,849 × 8
    ##    examiner_id art_unit gender start_year latest_date tenure_days    tc
    ##          <dbl>    <dbl> <chr>       <dbl> <date>            <dbl> <dbl>
    ##  1       59012     1716 male         2004 2015-07-24         4013  1700
    ##  2       59025     2465 male         2009 2017-05-18         2761  2400
    ##  3       59040     1724 female       2007 2017-05-23         3542  1700
    ##  4       59052     2138 male         2001 2007-02-28         2017  2100
    ##  5       59055     2165 male         2004 2007-12-26         1149  2100
    ##  6       59056     2124 male         2000 2017-05-22         6268  2100
    ##  7       59081     2489 male         2011 2017-05-19         2220  2400
    ##  8       59086     2487 female       2010 2017-05-18         2527  2400
    ##  9       59096     1612 male         2000 2015-11-20         5800  1600
    ## 10       59117     2439 male         2009 2011-09-02          925  2400
    ## # … with 4,839 more rows, and 1 more variable: work_group <dbl>
…
